<svg width="24" height="24" viewBox="0 0 24 24" fill="none" xmlns="http://www.w3.org/2000/svg">
<path d="M14.4973 4.99998L15.4636 7.06466C15.5732 7.29392 15.628 7.40855 15.7144 7.4792C15.7905 7.54144 15.8833 7.57986 15.9811 7.58966C16.0921 7.60079 16.2119 7.5585 16.4516 7.47391L18.0774 6.90001C18.582 6.72187 18.8344 6.6328 19 6.69055C19.144 6.74078 19.2573 6.85401 19.3075 6.99805C19.3653 7.16369 19.2762 7.41602 19.098 7.92068L18.5241 9.54646C18.4395 9.7861 18.3973 9.90591 18.4084 10.017C18.4182 10.1148 18.4566 10.2075 18.5188 10.2836C18.5895 10.37 18.7041 10.4248 18.9334 10.5345L20.4888 11.2783C20.9716 11.5092 21.213 11.6246 21.2893 11.7826C21.3556 11.9199 21.3556 12.0801 21.2893 12.2174C21.213 12.3754 20.9716 12.4908 20.4888 12.7217L18.9334 13.4655C18.7041 13.5751 18.5895 13.63 18.5188 13.7164C18.4566 13.7925 18.4182 13.8852 18.4084 13.983C18.3973 14.0941 18.4395 14.2139 18.5241 14.4535L19.098 16.0793C19.2762 16.584 19.3653 16.8363 19.3075 17.0019C19.2573 17.146 19.144 17.2592 19 17.3094C18.8344 17.3672 18.582 17.2781 18.0774 17.1L16.0171 16.3727C15.9268 16.3408 15.8816 16.3249 15.8351 16.3178C15.794 16.3114 15.7521 16.3103 15.7107 16.3144C15.6639 16.3189 15.6179 16.3324 15.526 16.3594L14.9973 16.5142M13.998 14C14.362 14 14.7033 13.9028 14.9973 13.7329C15.5955 13.3872 15.998 12.7406 15.998 12C15.998 11.2594 15.5955 10.6128 14.9973 10.2671C14.7033 10.0972 14.362 10 13.998 10M6.99805 15.9998C7.55033 15.9998 7.99805 16.4475 7.99805 16.9998C7.99805 17.5521 7.55033 17.9998 6.99805 17.9998C6.44576 17.9998 5.99805 17.5521 5.99805 16.9998C5.99805 16.4475 6.44576 15.9998 6.99805 15.9998ZM6.99805 15.9998L6.99098 10.5M6.99805 16.9998L6.99098 17.0069M2.99805 16.9998C2.99805 19.209 4.78891 20.9998 6.99805 20.9998C9.20719 20.9998 10.998 19.209 10.998 16.9998C10.998 15.9854 10.6204 15.0591 9.99805 14.354V6C9.99805 4.34315 8.6549 3 6.99805 3C5.34119 3 3.99805 4.34315 3.99805 6V14.354C3.37568 15.0591 2.99805 15.9854 2.99805 16.9998Z" stroke="black" stroke-width="2" stroke-linecap="round" stroke-linejoin="round"/>
</svg>
