<svg width="24" height="24" viewBox="0 0 24 24" fill="none" xmlns="http://www.w3.org/2000/svg">
<path d="M10 10.5V7M13 10.5V7M16 10.5V7M8 7H18M12 13.5H12.01M8 13.5H8.01M16 13.5H16.01M3 12V15L5 16.5H18L21 18V9L18 10.5H5L3 12ZM12.5 13.5C12.5 13.7761 12.2761 14 12 14C11.7239 14 11.5 13.7761 11.5 13.5C11.5 13.2239 11.7239 13 12 13C12.2761 13 12.5 13.2239 12.5 13.5ZM8.5 13.5C8.5 13.7761 8.27614 14 8 14C7.72386 14 7.5 13.7761 7.5 13.5C7.5 13.2239 7.72386 13 8 13C8.27614 13 8.5 13.2239 8.5 13.5ZM16.5 13.5C16.5 13.7761 16.2761 14 16 14C15.7239 14 15.5 13.7761 15.5 13.5C15.5 13.2239 15.7239 13 16 13C16.2761 13 16.5 13.2239 16.5 13.5Z" stroke="black" stroke-width="2" stroke-linecap="round" stroke-linejoin="round"/>
</svg>
