<svg width="24" height="24" viewBox="0 0 24 24" fill="none" xmlns="http://www.w3.org/2000/svg">
<path d="M20.5 13H20.49M12 4.5H11.99M3.5 13H3.49M18 7H17.99M6 7H5.99M18 19H17.99M6 19H5.99M9.17157 10.1716C7.60948 11.7337 7.60948 14.2663 9.17157 15.8284C10.7337 17.3905 13.2663 17.3905 14.8284 15.8284C16.3905 14.2663 16.3905 11.7337 14.8284 10.1716C13.2663 8.60948 10.7337 8.60948 9.17157 10.1716ZM9.17157 10.1716L12 13M20 13C20 13.2761 20.2239 13.5 20.5 13.5C20.7761 13.5 21 13.2761 21 13C21 12.7239 20.7761 12.5 20.5 12.5C20.2239 12.5 20 12.7239 20 13ZM11.5 4.5C11.5 4.77614 11.7239 5 12 5C12.2761 5 12.5 4.77614 12.5 4.5C12.5 4.22386 12.2761 4 12 4C11.7239 4 11.5 4.22386 11.5 4.5ZM3 13C3 12.7239 3.22386 12.5 3.5 12.5C3.77614 12.5 4 12.7239 4 13C4 13.2761 3.77614 13.5 3.5 13.5C3.22386 13.5 3 13.2761 3 13ZM17.5 7C17.5 7.27614 17.7239 7.5 18 7.5C18.2761 7.5 18.5 7.27614 18.5 7C18.5 6.72386 18.2761 6.5 18 6.5C17.7239 6.5 17.5 6.72386 17.5 7ZM5.5 7C5.5 6.72386 5.72386 6.5 6 6.5C6.27614 6.5 6.5 6.72386 6.5 7C6.5 7.27614 6.27614 7.5 6 7.5C5.72386 7.5 5.5 7.27614 5.5 7ZM17.5 19C17.5 19.2761 17.7239 19.5 18 19.5C18.2761 19.5 18.5 19.2761 18.5 19C18.5 18.7239 18.2761 18.5 18 18.5C17.7239 18.5 17.5 18.7239 17.5 19ZM5.5 19C5.5 18.7239 5.72386 18.5 6 18.5C6.27614 18.5 6.5 18.7239 6.5 19C6.5 19.2761 6.27614 19.5 6 19.5C5.72386 19.5 5.5 19.2761 5.5 19Z" stroke="black" stroke-width="2" stroke-linecap="round"/>
</svg>
