<svg width="24" height="24" viewBox="0 0 24 24" fill="none" xmlns="http://www.w3.org/2000/svg">
<path d="M14.4996 8.5001H14.5096M16.2196 19.9601L10.5508 14.2705C9.7579 13.4747 9.36143 13.0768 8.90391 12.9277C8.50148 12.7966 8.06782 12.7965 7.66534 12.9275C7.20776 13.0764 6.81115 13.4742 6.01792 14.2697L4.30299 15.9897M12.2385 15.9644L12.6069 15.5951C13.4081 14.7996 13.8087 14.4018 14.2689 14.2554C14.6737 14.1267 15.109 14.1302 15.5117 14.2654C15.9696 14.4191 16.3638 14.8232 17.1522 15.6314L18.8889 17.3881M18.8889 17.3881L21.5377 12.8001C21.706 12.5087 21.7901 12.3629 21.823 12.208C21.8522 12.0709 21.8522 11.9293 21.823 11.7922C21.7901 11.6373 21.706 11.4915 21.5377 11.2001L17.4615 4.13984C17.2932 3.8484 17.2091 3.70268 17.0914 3.5967C16.9872 3.50293 16.8645 3.43209 16.7313 3.38879C16.5806 3.33984 16.4124 3.33984 16.0758 3.33984H7.92336C7.58683 3.33984 7.41856 3.33984 7.26793 3.38879C7.13465 3.43209 7.01196 3.50293 6.90782 3.5967C6.79011 3.70268 6.70598 3.8484 6.53772 4.13984L2.46148 11.2001C2.29321 11.4915 2.20908 11.6373 2.17615 11.7922C2.14701 11.9293 2.14701 12.0709 2.17615 12.208C2.20908 12.3629 2.29321 12.5087 2.46148 12.8001L4.30299 15.9897M18.8889 17.3881L17.4615 19.8604C17.2932 20.1518 17.2091 20.2975 17.0914 20.4035C16.9872 20.4973 16.8645 20.5681 16.7313 20.6114C16.5806 20.6604 16.4124 20.6604 16.0758 20.6604H7.92336C7.58683 20.6604 7.41856 20.6604 7.26793 20.6114C7.13465 20.5681 7.01196 20.4973 6.90782 20.4035C6.79011 20.2975 6.70598 20.1518 6.53772 19.8604L4.30299 15.9897M14.9996 8.5001C14.9996 8.77624 14.7757 9.0001 14.4996 9.0001C14.2235 9.0001 13.9996 8.77624 13.9996 8.5001C13.9996 8.22396 14.2235 8.0001 14.4996 8.0001C14.7757 8.0001 14.9996 8.22396 14.9996 8.5001Z" stroke="black" stroke-width="2" stroke-linecap="round" stroke-linejoin="round"/>
</svg>
