<svg width="24" height="24" viewBox="0 0 24 24" fill="none" xmlns="http://www.w3.org/2000/svg">
<path d="M15.5005 8.50004L8.50053 15.5M11.5005 4.50004L19.5005 12.5C21.4335 14.433 21.4335 17.567 19.5005 19.5C17.5675 21.433 14.4335 21.433 12.5005 19.5L4.50053 11.5C2.56753 9.56704 2.56753 6.43304 4.50053 4.50004C6.43353 2.56704 9.56753 2.56704 11.5005 4.50004Z" stroke="black" stroke-width="2" stroke-linecap="round" stroke-linejoin="round"/>
</svg>
