<svg width="24" height="24" viewBox="0 0 24 24" fill="none" xmlns="http://www.w3.org/2000/svg">
<path d="M3 21H21M3 18H21M6 18.0001V13.0001M10 18.0001V13.0001M14 18.0001V13.0001M18 18.0001V13.0001M21 9.99999L14.126 3.88974C13.3737 3.22108 12.9976 2.88675 12.5732 2.75979C12.1992 2.64794 11.8008 2.64794 11.4268 2.75979C11.0024 2.88675 10.6263 3.22108 9.87404 3.88974L3 9.99999H21Z" stroke="black" stroke-width="2" stroke-linecap="round" stroke-linejoin="round"/>
</svg>
